objeto_id,objeto_nombre,objeto_descripcion
1,proyecto,Descripcion de cada proyecto
2,convenio,documento que avala la colaboración de servicio social con las organizaciones
3,evaluacion ,evaluacion de medio termino que las organizaciones realizan hacia los alumnos por el servicio social prestado
4,acreditacion,documento donde se plasman las calificaciones finales de los alumnos que prestaron servicio social por organización
5,carta ,documento que se genera sonde se plasma la recomendació de la organización
6,convenio_plantilla,plantilla del convenio
7,evaluacion_cierre,evaluacion que el alumno realiza hacia la organización
8,organizacion,organizacion
