proyecto_id,carrera_id
1,1
2,1
3,1
4,1
5,4
6,4
7,4
8,5
9,4
10,3
11,6
12,7
13,5
14,8
15,9
16,12
17,3
18,4
19,15
20,13
21,13
22,1
23,1
24,2
25,2
26,2
27,13
28,16
29,4
30,4
31,3
32,3
33,22
34,22
35,23
36,24
37,25
38,26
39,27
